<?xml version="1.0" encoding="UTF-8"?>
<svg width="24px" height="16px" viewBox="0 0 24 16" version="1.1" xmlns="http://www.w3.org/2000/svg" xmlns:xlink="http://www.w3.org/1999/xlink">
    <!-- Generator: Sketch 41.2 (35397) - http://www.bohemiancoding.com/sketch -->
    <title>Shape</title>
    <desc>Created with Sketch.</desc>
    <defs></defs>
    <g id="FEX_dev" stroke="none" stroke-width="1" fill="none" fill-rule="evenodd">
        <g id="Обьект_Описание" transform="translate(-379.000000, -27.000000)" fill="#42A5F5">
            <g id="Menu/-default">
                <g id="Upload-to-the-Cloud_f7f5ff_-1" transform="translate(379.000000, 27.000000)">
                    <path d="M19.8,6.1 C18.9,2.6 15.8,0 12,0 C9,0 6.4,1.6 5,4.1 C2.2,4.6 0,7 0,10 C0,13.3 2.7,16 6,16 L19,16 C21.8,16 24,13.8 24,11 C24,8.5 22.2,6.4 19.8,6.1 Z M13,9 L13,13 L11,13 L11,9 L8,9 L12,4 L16,9 L13,9 Z" id="Shape"></path>
                </g>
            </g>
        </g>
    </g>
</svg>