<?xml version="1.0" encoding="UTF-8"?>
<svg width="22px" height="22px" viewBox="0 0 22 22" version="1.1" xmlns="http://www.w3.org/2000/svg" xmlns:xlink="http://www.w3.org/1999/xlink">
    <!-- Generator: Sketch 41.2 (35397) - http://www.bohemiancoding.com/sketch -->
    <title>Close Window_4e4e4e_-1</title>
    <desc>Created with Sketch.</desc>
    <defs></defs>
    <g id="Symbols" stroke="none" stroke-width="1" fill="none" fill-rule="evenodd">
        <g id="Menu_dev/-Key" transform="translate(-194.000000, -24.000000)" fill="#FFFFFF">
            <g id="Close-Window_4e4e4e_-1" transform="translate(194.000000, 24.000000)">
                <path d="M0,0 L0,1 L0,21 L0,22 L1,22 L21,22 L22,22 L22,21 L22,1 L22,0 L21,0 L1,0 L0,0 Z M2,2 L20,2 L20,20 L2,20 L2,2 Z M6.6875,5.3125 L5.28125,6.71875 L9.5625,11 L5.21875,15.34375 L6.625,16.75 L10.96875,12.40625 L15.28125,16.71875 L16.6875,15.3125 L12.375,11 L16.625,6.75 L15.21875,5.34375 L10.96875,9.59375 L6.6875,5.3125 Z" id="Shape"></path>
            </g>
        </g>
    </g>
</svg>