<?xml version="1.0" encoding="UTF-8"?>
<svg width="588px" height="107px" viewBox="0 0 588 107" version="1.1" xmlns="http://www.w3.org/2000/svg" xmlns:xlink="http://www.w3.org/1999/xlink">
    <!-- Generator: Sketch 41.2 (35397) - http://www.bohemiancoding.com/sketch -->
    <title>EX</title>
    <desc>Created with Sketch.</desc>
    <defs></defs>
    <g id="FEX_dev" stroke="none" stroke-width="1" fill="none" fill-rule="evenodd" opacity="0.049999997">
        <g id="EX" fill="#000000">
            <path d="M151.29069,59.765625 L107.125651,59.765625 L107.125651,90.234375 L158.761393,90.234375 L158.761393,106.640625 L85.7389321,106.640625 L85.7389321,0 L158.614909,0 L158.614909,16.4794922 L107.125651,16.4794922 L107.125651,43.2861328 L151.29069,43.2861328 L151.29069,59.765625 Z M213.611653,37.7929688 L233.606771,0 L258.509114,0 L226.868489,52.8808594 L260.340169,106.640625 L234.485677,106.640625 L213.904622,68.1884766 L193.323567,106.640625 L168.347981,106.640625 L200.794271,52.8808594 L169.153646,0 L193.909505,0 L213.611653,37.7929688 Z" id="FEX.NET"></path>
        </g>
    </g>
</svg>