<?xml version="1.0" encoding="UTF-8"?>
<svg width="26px" height="18px" viewBox="0 0 26 18" version="1.1" xmlns="http://www.w3.org/2000/svg" xmlns:xlink="http://www.w3.org/1999/xlink">
    <!-- Generator: Sketch 41.2 (35397) - http://www.bohemiancoding.com/sketch -->
    <title>New Post_4e4e4e_-1</title>
    <desc>Created with Sketch.</desc>
    <defs></defs>
    <g id="Symbols" stroke="none" stroke-width="1" fill="none" fill-rule="evenodd">
        <g id="Mail" fill="#FFFFFF">
            <g id="New-Post_4e4e4e_-1">
                <path d="M0,0 L0,1 L0,17 L0,18 L1,18 L25,18 L26,18 L26,17 L26,1 L26,0 L25,0 L1,0 L0,0 Z M4.3125,2 L21.6875,2 L13,7.78125 L4.3125,2 Z M2,2.875 L8.75,7.375 L2,12.09375 L2,2.875 Z M24,2.875 L24,12.09375 L17.25,7.375 L24,2.875 Z M10.5,8.5625 L12.4375,9.84375 L13,10.1875 L13.5625,9.84375 L15.5,8.5625 L24,14.5 L24,16 L2,16 L2,14.5 L10.5,8.5625 Z" id="Shape"></path>
            </g>
        </g>
    </g>
</svg>